2016/06/01 * guld pre-founding contributions
    zofrex:Assets                              100 GULD
    zofrex:Income:guld                        -100 GULD
    guld:Liabilities                         -100 GULD
    guld:Equity:zofrex                          100 GULD
