2016/06/01 * guld pre-founding contributions
    con-ssc:Assets                              100 GULD
    con-ssc:Income:guld                        -100 GULD
    guld:Liabilities                         -100 GULD
    guld:Equity:con-ssc                          100 GULD
