2016/06/01 * guld pre-founding contributions
    coffbr01:Assets                              100 GULD
    coffbr01:Income:guld                        -100 GULD
    guld:Liabilities                         -100 GULD
    guld:Equity:coffbr01                          100 GULD
