2016/06/01 * guld pre-founding contributions
    jason0x43:Assets                              100 GULD
    jason0x43:Income:guld                        -100 GULD
    guld:Liabilities                         -100 GULD
    guld:Equity:jason0x43                          100 GULD
