2016/06/01 * guld pre-founding contributions
    serjn:Assets                              100 GULD
    serjn:Income:guld                        -100 GULD
    guld:Liabilities                         -100 GULD
    guld:Equity:serjn                          100 GULD
