2016/06/01 * guld pre-founding contributions
    baluubas:Assets                              100 GULD
    baluubas:Income:guld                        -100 GULD
    guld:Liabilities                         -100 GULD
    guld:Equity:baluubas                          100 GULD
