2016/06/01 * guld pre-founding contributions
    mwawrusch:Assets                              100 GULD
    mwawrusch:Income:guld                        -100 GULD
    guld:Liabilities                         -100 GULD
    guld:Equity:mwawrusch                          100 GULD
