2016/06/01 * guld pre-founding contributions
    simonzack:Assets                              100 GULD
    simonzack:Income:guld                        -100 GULD
    guld:Liabilities                         -100 GULD
    guld:Equity:simonzack                          100 GULD
